<?xml version="1.0" encoding="utf-8"?>
<!-- Generator: Adobe Illustrator 24.0.1, SVG Export Plug-In . SVG Version: 6.00 Build 0)  -->
<svg version="1.1" id="Ebene_1" xmlns="http://www.w3.org/2000/svg" xmlns:xlink="http://www.w3.org/1999/xlink" x="0px" y="0px"
	 viewBox="0 0 457 551" style="enable-background:new 0 0 457 551;" xml:space="preserve">
<style type="text/css">
	.st0{fill-rule:evenodd;clip-rule:evenodd;}
	.st1{fill-rule:evenodd;clip-rule:evenodd;fill:none;}
	
		.st2{fill-rule:evenodd;clip-rule:evenodd;fill:none;stroke:#000000;stroke-width:1.2385;stroke-linecap:round;stroke-linejoin:round;stroke-miterlimit:10;}
</style>
<g>
	<path class="st0" d="M418.3,128.2c-0.1-0.7-0.3-1.4-0.3-2.1c0.6-12.7,1.2-25.4,1.9-38c0-0.7,0-1.5-0.1-2.2
		c-0.1-2.5-1.3-3.9-3.8-4.1c-4.3-0.3-8.6-0.8-12.9-0.8c-11.6,0.1-23.2,0.4-34.8,0.7c-1.5,0-3.1,0.4-4.6,0.6c0,0.3,0,0.5,0.1,0.8
		c6.1,0.2,12.2,0.4,18.3,0.5c0,0.3,0,0.6,0.1,0.8c-0.8,0.3-1.6,0.8-2.4,0.8c-4.8,0-9.6-0.1-14.5-0.1c-6.9-0.1-13.9-0.4-20.8-0.1
		c-17.1,0.8-34.3,1.4-51.4-0.4c-2.4-0.3-4.9,0.1-7.3,0.1c-3.6,0.1-7.3,0.2-10.9,0.1c-4.8-0.1-9.5-0.3-14.3-0.5c-0.5,0-1-0.1-1.6-0.7
		c1.2-0.2,2.4-0.5,3.6-0.7c0-0.1,0-0.3,0-0.4c-1.4-0.1-2.7-0.2-4.1-0.2c-14.5-0.5-29.1-0.9-43.6-1.5c-18.2-0.7-36.4-0.3-54.5,0.1
		c-1.7,0-3.4,0.4-5.1,0.5c-2.2,0.1-2.9,1.2-2.9,3.3c0.1,7.4,0.3,14.9,0.2,22.3c-0.1,5.2-0.6,10.4-0.9,15.5c-0.1,2-1.1,3.1-3,3.8
		c-6.9,2.5-14,2.2-21.1,2.2c-7.4,0.1-14.9-0.2-22.3,0.1c-6.5,0.3-12.7,2.1-18.7,4.7c-6.2,2.6-10.1,7.5-12.6,13.4
		c-2.3,5.4-3.9,11-5.6,16.6c-7.3,22.8-11.9,46.1-14.8,69.8c-1.9,15.8-3.9,31.7-5.4,47.6c-0.8,8.7-0.9,17.5-1.2,26.3
		c-0.3,8.1-0.6,16.2-0.7,24.3c-0.1,10,3.2,19.2,7.2,28.2c4.1,9.1,11.2,15.4,18.7,21.4c6.1,4.9,12.4,9.5,18.9,13.7
		c6,3.8,12.6,6.7,18.6,10.5c7.3,4.6,15.4,8.3,21,15.1c3.5,4.2,6.7,8.5,9.6,13.1c1.2,1.8,1.8,4.3,1.8,6.5c-0.1,7.5-0.5,15-1,22.5
		c-0.5,8.5-1.1,17-1.7,25.5c-0.3,4.4,1.3,7,5.7,9.3c8.1,4.4,16.8,6.8,25.7,8.4c10.7,2,21.5,3.4,32.3,5.1c9.6,1.6,19.2,2.9,28.9,3.1
		c18,0.3,36.1,1,54.1,1.4c5.2,0.1,10.4,0,15.6-0.1c0.7,0,1.5-0.2,2.2-0.4c0-0.2,0-0.4,0-0.6c-0.7-0.1-1.4-0.3-2-0.3
		c-19.5-0.3-39.1-0.6-58.6-0.9c-4.2-0.1-8.3-0.1-12.5-0.1c-0.5,0-1.2,0-1.5-0.3c-1.7-2.2-4.2-1.6-6.3-1.8c-3.6-0.4-7.3-0.5-10.9-0.9
		c-0.7-0.1-1.4-0.4-2.1-0.6c0-0.2,0.1-0.4,0.1-0.6c5.3,0.3,10.7,0.5,16,0.8c0-0.2,0.1-0.4,0.1-0.6c-0.5-0.1-1.1-0.3-1.6-0.3
		c-4.8-0.3-9.6-0.7-14.5-0.9c-1.3,0-2.5,0.6-3.8,0.6c-1.4,0-2.7-0.4-4.1-0.6c-2.1-0.3-4.2-0.9-6.2-0.8c-2.4,0.2-4.4-0.2-6.1-1.9
		c-1.5-1.5-3.1-2.2-5.3-2.5c-8.7-1.5-17.2-3.8-25.1-8c-4.1-2.2-7.2-5.4-9.4-9.5c-0.7-1.3-1-2.8-1-4.2c0.1-4.6-0.6-9-1.8-13.3
		c-1.2-4.4-0.4-8.7,0.9-12.9c0.2-0.8,0.8-1.4,1.2-2.1c0.2,0.1,0.4,0.1,0.6,0.2c0,0.6,0.2,1.3,0,1.8c-2.2,5.5-1.5,10.9-0.2,16.4
		c0.5,2.4,0.9,4.8,0.8,7.3c-0.3,6.8,3.4,11.4,8.7,14.5c4.4,2.6,9.4,4.3,14.3,5.9c8.8,2.9,17.9,3.6,27.2,4c4.7,0.2,9.4,1.2,14.2,1.5
		c13.1,0.9,26.3,1.3,39.3,2.7c7.6,0.8,14.9-0.6,22.4-0.8c2,0,4,0.1,6,0.1c11.1-0.1,22.3-0.2,33.4-0.3c5.6-0.1,11.1,0,16.7-0.2
		c3.3-0.1,6.6-0.5,9.9-0.8c2.9-0.2,5.8-0.4,8.6-0.6c9.3-0.6,18.7-1.1,28-1.8c3.9-0.3,7.8-0.9,11.7-1.3c0.5-0.1,1,0,1.5,0.1
		c0.1,0.2,0.2,0.4,0.4,0.6c-0.7,0.5-1.3,1.2-2,1.3c-7.8,1-15.6,2-23.4,3c-1.8,0.2-3.6,0.5-5.3,1c9.8,1.1,19.2-1.9,29.1-1.8
		c-0.4,0.2-0.9,0.6-1.3,0.7c-11.4,1.2-22.7,2.5-34.1,3.6c-5.5,0.6-11,1.1-16.6,1.6c-6.3,0.5-12.5,1.2-18.8-0.5
		c-3.3-0.8-6.7-0.7-9.8,1c-0.8,0.4-1.2,1.5-1.7,2.3c0.8,0.3,1.7,0.8,2.5,0.8c6.8-0.5,13.6-1.3,20.4-1.6c6-0.3,12,0,18-0.3
		c8-0.4,15.9-1.2,23.9-1.9c10.1-0.8,20-2.4,29.9-4.8c6.4-1.6,12.6-3.4,18-7.3c3.7-2.7,5.6-6.1,6-10.6c0.5-6.7-0.4-13.2-2.1-19.8
		c-2.1-8-3.2-16.3-4.5-24.5c-2.4-14.9-4.1-29.8-5-44.9c-0.5-8.2-1.3-16.3-1.4-24.5c-0.1-11.3,0.4-22.7,0.7-34
		c0.1-4.7,0.5-9.3,0.6-14c0.2-10,0.4-19.9,0.6-29.9c0-0.5,0.2-1,0.3-1.5c1.2-1.2,2.4-2.4,3.6-3.6c0.1,0.8,0.4,1.5,0.4,2.3
		c-0.1,5.6-0.3,11.1-0.4,16.7c-0.4,14-0.4,27.9-1.2,41.9c-1,17.4-0.5,34.8,1,52.1c0.9,10.4,1.9,20.7,3.4,31
		c1.7,11.6,3.8,23.1,6.1,34.6c0.9,4.7,2.3,9.4,1.7,14.3c-0.5,3.9-0.9,7.9-2.4,11.4c-2.6,6-8.5,8.5-14.2,10.7
		c-11.4,4.4-23.4,6.1-35.4,7.5c-9.9,1.2-19.9,2.1-29.9,2.7c-16.2,1-32.3,2-48.5,2.6c-9.7,0.4-19.5,0.1-29.2-0.2
		c-11.8-0.3-23.6-1-35.4-1.5c-6.2-0.3-12.5-0.1-18.7-0.8c-10.1-1.1-20.1-3-30.2-4.2c-13.5-1.7-26.8-4.3-39.5-9.4
		c-4.5-1.8-9.2-3.6-11.8-8.3c-2.1-3.9-2.9-8.1-3-12.4c-0.5-11.3,1.9-22.3,3.4-33.4c0.7-4.8,1.6-9.7-0.8-14.2
		c-3-5.6-6.2-11.2-11.2-15.1c-4.5-3.5-9.6-6-14.5-9c-9.6-5.8-19.9-10.2-28.4-17.8c-5.6-5-12.1-9.1-17.8-14
		c-4.2-3.7-8.2-7.8-11.4-12.4c-2.7-3.7-4-8.4-6-12.6c-2.5-5.5-4.2-11.1-4.1-17.2c0.2-10.8,0.3-21.5,0.9-32.3
		c1-18.2,1.2-36.5,3.4-54.7c2.5-20.5,5.7-40.9,10.6-60.9c3.3-13.4,7.8-26.6,12-39.8c1.4-4.6,3.5-8.9,6.7-12.7
		c4.4-5.1,10.4-7.2,16.3-9.3c10.4-3.7,20.9-3.3,31.7-1.7c4.9,0.7,10.1,0.7,15,0.3c4.5-0.4,8.4-2.4,9.3-7.5c0.3-1.8,0.5-3.7,0.5-5.5
		c-0.1-9.8-0.2-19.6-0.3-29.4c0-2.8,0.3-3.4,3.1-3.9c3.2-0.5,6.5-0.8,9.7-1.3c1-0.2,2.3-0.7,2.7-1.5c1.8-3.5,3-7.2,4.9-10.6
		c1.5-2.7,3.4-5.2,5.6-7.4c5.7-5.7,13.2-8.7,20.3-12.4c7.8-4.1,16.4-5.1,25-5.9c10-1,19.5-3.8,28.7-7.5c5.5-2.2,10.8-4.8,16.4-6.3
		c9.9-2.7,20.1-2.4,30.3-1.3c11.9,1.4,22.7,6,33.5,10.8c7.1,3.2,14.3,6.2,21.6,8.7c5.6,1.9,11.6,2.8,17.4,4.4
		c15.6,4.1,27.1,13.1,33.3,28.2c0.6,1.4,1.5,1.7,2.9,1.8c4.5,0.1,9,0.3,13.5,0.7c3.6,0.3,6,2.9,5.9,6.6c-0.3,10.5-0.8,20.9-1.3,31.4
		c-0.1,2.5-0.7,5-1.1,7.4C420.2,126.1,419.2,127.1,418.3,128.2z M388.3,65.8c-5.2-4.4-10.2-8.6-16.3-11.3
		c-6.1-2.7-12.6-3.1-19.1-3.9c6.5,3.3,14.4,2.5,20.5,6.9c-0.1,0.3-0.2,0.5-0.2,0.8c-0.7-0.2-1.4-0.4-2.2-0.5
		c-1.6-0.2-3.3-0.4-4.9-0.6c-0.4-0.1-0.9-0.1-1.3-0.2c-1.9-0.7-3.7-1.7-5.7-2.2c-5.3-1.3-10.8-2.2-16-3.7c-3.4-1-6.6-2.7-9.8-4.2
		c-0.6-0.3-1-1-1.3-1.7c5.4,0.8,9.7,5.2,15.5,4.2c-0.7-0.3-1.4-0.6-2.1-0.9c-4.2-1.9-8.4-3.9-12.7-5.7c-1.3-0.5-2.8-0.5-4.1-0.8
		c-0.6-0.1-1.3,0-1.9-0.3c-5.4-2.6-10.8-5.3-16.2-8c-0.2-0.1-0.3-0.3-0.3-1c1.5,0.2,3.1,0.5,4.6,0.7c0.1-0.1,0.1-0.3,0.2-0.4
		c-0.5-0.3-1-0.6-1.5-0.8c-2.7-1-5.4-2-8.1-2.9c-0.5-0.2-1.6-0.1-1.8,0.2c-0.8,1.7-2.1,1.2-3.4,1.1c-3.5-0.5-7.1-1-10.6-1.5
		c-0.5-0.1-0.9-0.3-1.4-0.8c1.6-0.1,3.2-0.3,4.7-0.4c0-0.1,0-0.2,0-0.4c-2-0.3-4-1.1-5.9-1c-7.6,0.6-15.4,0.2-22.7,2.8
		c-4.6,1.6-9,3.8-13.7,5.4c-6.4,2.2-12.8,4.1-19.3,6.1c-0.6,0.2-1.3,0.4-2.3,0.7c3.1,1.6,5.7,1.3,8.5,0.2c5.2-2,10.4-3.9,15.6-5.8
		c0.4-0.1,0.8-0.1,1.3,0.1c-9.8,5.5-20.4,9.1-31.5,11c0.1,0.4,0.2,0.7,0.3,1.1c9.9-0.8,19-5.1,28.6-7.5c0.2,0.2,0.3,0.3,0.5,0.5
		c-0.6,0.5-1,1.3-1.7,1.5c-2.1,0.8-4.3,1.5-6.5,2.2c-5.3,1.5-10.7,3-16.1,4.4c-0.3,0.1-0.6,0.3-0.9,0.5c0,0.2,0.1,0.4,0.1,0.6
		c4.1-0.3,8.1-0.5,12.5-0.8c-2.6,3.4-28.7,3.4-33.6,0.2c5.7-0.5,10.9-1.7,15.9-3.9c0-0.3-0.1-0.6-0.1-0.9c-1,0-2.1-0.1-3.1,0
		c-14,1.1-26.4,6.3-38.1,13.7c-6.4,4.1-10.4,9.8-13.3,16.5c-0.8,1.8-0.4,2.5,1.7,2.5c4.2,0,8.5-0.2,12.7-0.1
		c14.3,0.2,28.5,0.5,42.8,0.8c17,0.4,34,0.9,50.9,1.3c13.2,0.3,26.4,0.5,39.6,0.6c9.9,0.1,19.8-0.2,29.6-0.2c4.3,0,8.6,0.3,12.9,0.4
		c1.8,0,3.5-0.1,5.3-0.2c3.7-0.2,7.4-0.4,11.1-0.5c7.5-0.3,15-0.6,22.5-0.9c1.1,0,2.1-0.3,1.6-1.7c-2-5.1-4.7-9.7-9.1-13.3
		C388.9,64.5,388.7,65,388.3,65.8z M329.6,83.9c7.4-0.6,14.8-0.5,22.2-0.6c2.1,0,4.2,0,6.4-0.3c-10.7-1.7-21.3-0.1-32-0.2
		c-10.7-0.1-21.3,0-32,0C306,83.8,317.7,84.9,329.6,83.9z M261.8,510.4c0,0.1,0,0.2,0,0.3c4,0,8,0,12,0c0-0.1,0-0.2,0-0.3
		C269.7,510.4,265.7,510.4,261.8,510.4z M288.7,511.3c0,0.1,0,0.1,0,0.2c3.6,0,7.2,0,10.8,0c0-0.1,0-0.1,0-0.2
		C295.9,511.3,292.3,511.3,288.7,511.3z"/>
	<path class="st0" d="M421.2,125c-1,1-2,2.1-2.9,3.1c-0.2,0.7-0.6,1.4-0.6,2.1c-0.2,21.7-0.5,43.3-0.6,65c0,9.3,0.5,18.5,0.5,27.8
		c0,5.7-0.5,11.4-0.6,17.1c-0.3,13.3-0.5,26.5-0.6,39.8c0,5,0.5,10,0.7,15c1.2-1.2,2.4-2.4,3.6-3.6c0.1-0.9,0.4-1.7,0.4-2.6
		c0.1-34.7,0.2-69.4,0.3-104.2c0-19.1,0.1-38.1,0.2-57.2C421.6,126.6,421.3,125.8,421.2,125z"/>
	<path class="st1" d="M398.3,77c0.5,1.3-0.5,1.6-1.6,1.7c-7.5,0.3-15,0.6-22.5,0.9c-3.7,0.1-7.4,0.3-11.1,0.5
		c-1.8,0.1-3.5,0.3-5.3,0.2c-4.3-0.1-8.6-0.4-12.9-0.4c-9.9,0-19.8,0.2-29.6,0.2c-13.2-0.1-26.4-0.3-39.6-0.6
		c-17-0.4-34-0.9-50.9-1.3c-14.3-0.3-28.5-0.6-42.8-0.8c-4.2-0.1-8.5,0.1-12.7,0.1c-2,0-2.4-0.7-1.7-2.5c2.9-6.7,6.9-12.5,13.3-16.5
		c11.7-7.5,24.2-12.6,38.1-13.7c1-0.1,2.1,0,3.1,0c0,0.3,0.1,0.6,0.1,0.9c-4.9,2.2-10.2,3.4-15.9,3.9c4.9,3.2,30.9,3.2,33.6-0.2
		c-4.4,0.3-8.5,0.6-12.5,0.8c0-0.2-0.1-0.4-0.1-0.6c0.3-0.2,0.6-0.4,0.9-0.5c5.4-1.5,10.7-2.9,16.1-4.4c2.2-0.6,4.4-1.3,6.5-2.2
		c0.7-0.3,1.1-1,1.7-1.5c-0.2-0.2-0.3-0.3-0.5-0.5c-9.5,2.4-18.6,6.7-28.6,7.5c-0.1-0.4-0.2-0.7-0.3-1.1c11.2-1.9,21.7-5.5,31.5-11
		c-0.5-0.3-0.9-0.3-1.3-0.1c-5.2,1.9-10.4,3.8-15.6,5.8c-2.8,1.1-5.4,1.4-8.5-0.2c1.1-0.3,1.7-0.5,2.3-0.7c6.4-2,12.9-3.9,19.3-6.1
		c4.6-1.6,9-3.8,13.7-5.4c7.3-2.5,15.1-2.1,22.7-2.8c1.9-0.2,3.9,0.6,5.9,1c0,0.1,0,0.2,0,0.4c-1.6,0.1-3.2,0.3-4.7,0.4
		c0.4,0.5,0.9,0.7,1.4,0.8c3.5,0.5,7.1,0.9,10.6,1.5c1.3,0.2,2.6,0.6,3.4-1.1c0.1-0.3,1.3-0.4,1.8-0.2c2.7,0.9,5.4,1.9,8.1,2.9
		c0.5,0.2,1,0.5,1.5,0.8c-0.1,0.1-0.1,0.3-0.2,0.4c-1.5-0.2-3.1-0.5-4.6-0.7c0,0.7,0.1,1,0.3,1c5.4,2.7,10.8,5.3,16.2,8
		c0.5,0.3,1.3,0.2,1.9,0.3c1.4,0.2,2.9,0.2,4.1,0.8c4.3,1.8,8.5,3.8,12.7,5.7c0.7,0.3,1.4,0.6,2.1,0.9c-5.9,1.1-10.2-3.3-15.5-4.2
		c0.3,0.8,0.7,1.5,1.3,1.7c3.2,1.5,6.4,3.2,9.8,4.2c5.3,1.5,10.7,2.3,16,3.7c2,0.5,3.8,1.5,5.7,2.2c0.4,0.2,0.8,0.2,1.3,0.2
		c1.6,0.2,3.3,0.4,4.9,0.6c0.7,0.1,1.5,0.3,2.2,0.5c0.1-0.3,0.2-0.5,0.2-0.8c-6.1-4.4-14-3.6-20.5-6.9c6.5,0.7,13,1.2,19.1,3.9
		c6.1,2.7,11.1,6.9,16.3,11.3c0.4-0.8,0.6-1.3,1-2.1C393.6,67.4,396.4,72,398.3,77z M275.2,65.9c-8,0.2-16,0.4-24,1.1
		c9.4,2.1,18.8-1.5,28.1,1c0.1-0.5,0.1-0.9,0.2-1.4C278.1,66.3,276.6,65.8,275.2,65.9z M354.3,57.5c0.1-0.4,0.2-0.8,0.3-1.1
		C348.3,54,341.8,52,335,51c-0.1,0.3-0.2,0.7-0.3,1C341.2,53.8,347.8,55.7,354.3,57.5z M267.3,52.7c3.4-1.7,6.4-3.6,9.7-4.8
		c3.2-1.2,6.6-1.8,10.3-2.8C282.3,43.1,269.2,48.1,267.3,52.7z M257.1,56.6c2.1,1.2,12,0.9,13.6-0.4C265.9,54,258.8,54.2,257.1,56.6
		z M293.5,62.9c-3.5,0.2-7,0.7-10.5,1.1c-0.7,0.1-1.4,0.1-2,0.1c0,0.3,0,0.5,0,0.8c3.5,0,6.9,0.2,10.4-0.1c3.4-0.2,6.8-0.9,10.2-1.4
		c0-0.2,0-0.4,0.1-0.6C298.8,62.9,296.1,62.7,293.5,62.9z M327.7,66.2c-1.6-2.6-12.3-4.4-15.7-2.4C317.4,64.7,322.6,65.5,327.7,66.2
		z M284,67.8c5.1,0.4,9.9,0.7,14.7,1.1c0-0.3,0-0.5,0-0.8C294.8,66.5,285.8,66.1,284,67.8z M353.8,68.7c1.6,0.1,2.3,1,2.9,2.3
		c0.1,0.4,0.7,0.7,1.1,0.8c0.3,0,0.9-0.7,0.8-0.8c-0.4-1.1-0.7-2.5-1.5-3.2c-0.8-0.7-2.2-0.7-3.4-0.9c-0.2,0-0.5,0.6-0.9,1
		C353.2,68.2,353.5,68.7,353.8,68.7z M341.4,57.5c0.1-0.3,0.2-0.6,0.3-0.8c-3.1-1-6.3-2-9.4-3c-0.1,0.3-0.2,0.5-0.3,0.8
		C334.8,56.4,337.9,57.6,341.4,57.5z"/>
	<path class="st1" d="M294.2,82.7c11.8,1.1,23.5,2.1,35.4,1.2c7.4-0.6,14.8-0.5,22.2-0.6c2.1,0,4.2,0,6.4-0.3
		c-10.7-1.7-21.3-0.1-32-0.2C315.5,82.6,304.9,82.7,294.2,82.7z"/>
	<path class="st1" d="M273.7,510.4c-4,0-8,0-12,0c0,0.1,0,0.2,0,0.3c4,0,8,0,12,0C273.7,510.6,273.7,510.5,273.7,510.4z"/>
	<path class="st1" d="M299.5,511.3c-3.6,0-7.2,0-10.8,0c0,0.1,0,0.1,0,0.2c3.6,0,7.2,0,10.8,0C299.5,511.4,299.5,511.4,299.5,511.3z
		"/>
	<path class="st0" d="M87.9,348.3c-1-1.9-2.1-3.7-3.1-5.6c-3.7-7.1-6.3-14.6-7.1-22.6c-0.5-5.5-0.4-11.1-0.3-16.7
		c0.1-5.6,0.7-11.1,1-16.7c0.9-15.6,1.6-31.1,2.6-46.7c0.4-5.8,1.2-11.5,1.8-17.3c1.4-13.7,3.5-27.2,7.2-40.5
		c3.8-13.4,11.6-23,25.8-26.1c4.7-1,9.6-1,14.4-1.3c8.8-0.5,16.7,1.4,23.1,8.1c3.1,3.2,5.2,6.7,5.4,11.1c0.3,9.8,0.4,19.6,0.5,29.4
		c0,11.2,0,22.4-0.2,33.6c-0.1,10.8-0.4,21.7-0.5,32.5c-0.2,16.6,0.1,33.1-0.5,49.7c-0.4,12.1-1.7,24.1-3,36.1
		c-0.7,6.5-2.9,12.7-7.3,17.9c-0.8,0.9-1.9,1.8-3,2.1c-3.9,1.1-7.9,1.5-11.9,0.3c-4.6-1.4-9.3-2.6-13.8-4.4
		c-3.7-1.5-7.1-3.9-10.7-5.8c-0.8-0.4-1.7-0.6-2.6-0.8c-1-0.2-2.2-0.1-2.9-0.7c-1.5-1.3-2.7-2.9-4-4.3c-2-2.2-4-4.5-6-6.7
		c-0.2,0.2-0.4,0.3-0.6,0.5c1.2,2.2,2.4,4.3,3.6,6.5c-0.2,0.1-0.4,0.2-0.6,0.4c-3.9-4.9-7.8-9.8-11.8-14.8c0.1-0.1,0.2-0.2,0.3-0.3
		c1.4,1.1,2.8,2.1,4.1,3.2C87.8,348.5,87.8,348.4,87.9,348.3z M155.1,239.1c0.1-6.1-0.5-12.2-0.3-18.2c0.2-9.7,1.1-19.4,1-29.2
		c0-6.3-0.9-12.7-2.1-19c-1.6-7.8-8.5-14.2-17.9-13.9c-7.4,0.2-14.7,0.2-21.9,2.2c-5.2,1.5-9.3,4.3-12.6,8.6
		c-4.2,5.4-6.6,11.6-8.1,18.2c-0.2,0.9-0.8,1.7-1,2.6c-1.2,7.3-2.6,14.7-3.5,22c-1.4,11.1-2.6,22.2-3.6,33.4
		c-1.3,15-2.5,30-3.4,45.1c-0.7,11.5-1.4,22.9,1,34.4c2.9,13.9,10.3,24.7,21.6,33.1c7.9,5.9,16.1,10.9,26,12.5
		c3.2,0.5,6.5,0.8,9.7,0.7c4.7-0.2,6.9-2.1,9.3-9.4c2.4-7.4,2.6-15.1,3.7-22.8c1.6-11.3,0.7-22.5,1.2-33.8c0.4-10.3,0.7-20.6,1-30.9
		c-0.3,0-0.5,0-0.8,0C154.6,262.8,154.9,250.9,155.1,239.1z"/>
	<path class="st0" d="M397.6,396.1c0.7,0.7,1.5,1.5,2.2,2.2c0.4-1.5,1.1-3,1.2-4.5c0.8-11.2,1.5-22.3,2.2-33.5
		c0.6-10.3,1.2-20.6,1.4-30.9c0.2-8.2-0.3-16.5-0.3-24.7c0-5.6,0.6-11.1,0.8-16.7c0.4-10.2,0.6-20.5,0.9-30.7
		c0.1-3.3,0.5-6.5,0.7-9.8c0.1-0.9-0.1-1.7-0.2-2.6c-1-1-1.9-2-2.9-2.9c-0.4,0.9-0.8,1.8-1,2.1c-0.1-0.9-0.4-2.5-0.6-4.1
		c-0.3,0-0.7,0-1,0c-1.2,20.9-2.5,41.8-3.7,62.7c0.4,0,0.8,0.1,1.2,0.1c1.8-10.2,2.2-20.6,2.6-31c0,10.2,0.1,20.5,0,30.7
		c-0.1,9.9-0.4,19.7-0.6,29.6c-0.3,12.9-0.4,25.8-0.9,38.7c-0.3,7.7-1.4,15.3-2.1,23C397.5,394.7,397.6,395.4,397.6,396.1z"/>
	<path class="st0" d="M190.5,480.4c0.6,3.4,1.1,6.8,1.7,10.2c0.2,1.1,0.8,2.5-0.9,2.9c-1.8,0.4-3.3-0.6-3.5-2.4
		c-0.3-2.4-0.4-4.9-0.7-7.3c-0.1-0.7-0.4-1.3-0.5-1.9c-0.3,0-0.5,0.1-0.8,0.1c0.1,2,0.1,4,0.3,6c0.6,5.3,0.6,5.4-4.7,4
		c-1.7-0.5-3.3-1.2-5-1.9c-2.4-1-4.7-2.1-7-3.3c-1.7-0.9-3.3-1.9-5-2.9c-0.4-0.2-0.9-0.1-1.3-0.2c0.1,0.4,0,1,0.3,1.3
		c0.4,0.6,1,1.2,1.6,1.5c6.9,3.3,13.5,7.1,21.3,8.2c10.9,1.5,21.8,3.9,32.8,4.9c17.8,1.5,35.7,2.1,53.6,3.1
		c4.8,0.3,9.7,0.6,14.5,0.6c5.9-0.1,11.7-0.5,17.6-0.9c9.5-0.6,19-1.1,28.4-2c14.9-1.4,29.9-2.5,44.5-6.2c4.3-1.1,8.8-1.6,13-2.8
		c2.9-0.8,5.6-2.3,8.4-3.5c0.3-0.1,0.6-0.8,0.6-1.2c0.2-1.2,0.2-2.5,0.3-3.7c0.4-3.6,1-7.2,1.1-10.8c0.4-8.1-0.1-16.2-2.1-24.1
		c-0.1-0.4-0.2-0.9-0.4-1.3c-0.3-0.5-0.8-0.9-1.2-1.4c-0.2,0.6-0.5,1.2-0.4,1.7c0.5,2.7,1.5,5.3,1.7,8c0.9,9.8,1.7,19.7-1.1,29.4
		c-0.1,0.3-0.1,0.6-0.3,0.8c-0.4,0.6-1,1.1-1.4,1.6c-0.3-0.7-0.7-1.3-0.8-2c-0.2-1.2-0.2-2.4-0.3-3.6c-0.2,0-0.5,0-0.7,0
		c-0.2,1-0.5,2-0.6,3.1c-0.7,4.5-1.5,5.5-6,5.5c-2.7,0-5,0.9-7.4,1.7c-2.5,0.8-3,0.4-3.2-2.2c-0.1-1.6-0.2-3.3-0.5-4.9
		c-0.1-0.7-0.6-1.3-1-1.9c-0.3,0.1-0.5,0.2-0.8,0.2c0.2,1.9,0.4,3.8,0.6,5.7c0.1,0.7,0.2,1.5,0.2,2.2c0,1.6-1.2,2.1-2.5,2.2
		c-1.5,0.1-1.6-1-1.6-2.1c-0.2-4.2-0.3-8.5-0.6-12.7c-0.7-7.8-1.5-15.5-2.2-23.2c-0.1-0.8-0.5-1.6-0.8-2.4c-0.2,0-0.4,0-0.7,0
		c-0.1,0.6-0.3,1.2-0.2,1.7c0.6,6.6,1.2,13.2,1.7,19.7c0.5,5.6,0.9,11.2,1.3,16.8c0.1,2-0.8,3.1-2.8,3.3c-1.5,0.2-3.1,0.4-4.6,0.7
		c-1.6,0.3-2.5-0.2-2.7-2c-0.2-2.5-0.4-5-0.7-7.5c-0.1-1.1-0.5-2.2-0.8-3.3c-0.2,0-0.5,0.1-0.7,0.1c-0.1,0.5-0.2,1-0.2,1.5
		c0.1,2.7,0.3,5.5,0.4,8.2c0.1,3.6,0.1,3.7-3.5,4.2c-5.1,0.7-10.3,1.3-15.5,1.7c-13,1-26.1,1.8-39.1,2.9c-7.2,0.6-14.3,0.8-21.5,0.1
		c-5.3-0.5-10.7,0.2-16-0.2c-17.4-1.2-34.8-2.5-52.2-3.9c-4.2-0.3-8.3-1.4-12.5-2c-2.2-0.3-3.1-1.5-3.4-3.7
		c-0.5-3.2-1.2-6.3-1.9-9.4c-0.1-0.6-0.5-1.1-0.8-1.7C190.9,480.3,190.7,480.4,190.5,480.4z"/>
	<path class="st0" d="M403.6,242.1c1,1,1.9,2,2.9,2.9c0.4-3.2,0.9-6.4,1-9.6c0.1-4.7-0.2-9.5-0.2-14.2c0.1-10.2,0.1-20.3,0.4-30.5
		c0.3-9.5,1-19,1.4-28.5c0.6-13.5,1.1-27.1,1.7-40.6c0.3-7.1,0.9-14.2,1.3-21.3c0-0.4,0.1-0.8,0-1.1c-0.4-1.1-0.9-2.9-1.5-3
		c-1.6-0.1-2.9,0.7-3,2.7c-0.2,4.4-0.8,8.7-0.8,13.1c-0.1,9,0.1,18,0,26.9c0,2.6-0.7,5.1-0.9,7.7c-0.2,2.5,0,5-0.1,7.5
		c-0.1,3.6-0.4,7.3-0.5,10.9c-0.3,15.8-0.6,31.6-0.9,47.4c0,1.3,0,2.7-0.5,4c-2.1,5.8-1.5,11.7-1.2,17.6c0.1,1.9,0,3.7,0.1,5.6
		C402.9,240.4,403.4,241.2,403.6,242.1z"/>
	<path class="st0" d="M194.5,460.4c0-1.8,0-3.6,0-5.4c-0.1-1.6-0.2-3.3-0.4-4.9c-0.1-1.7,0.5-2.4,2.3-2.2c6.8,0.7,13.6,1.3,20.4,2.1
		c12.8,1.4,25.5,3.1,38.2,4.5c11.4,1.3,22.8,0.5,34.2-0.1c7-0.4,14-0.1,20.9-0.7c12.9-1,25.9-2.3,38.8-3.5c7.4-0.7,14.7-1.6,22-2.7
		c7.9-1.1,15.7-2.5,23.5-3.8c0.7-0.1,1.4-0.5,2.1-0.7c0-0.3-0.1-0.5-0.1-0.8c-0.9,0-1.9-0.2-2.8-0.1c-7.2,1.1-14.4,2.3-21.6,3.3
		c-3.9,0.5-7.8,0.6-11.7,1.1c-4.8,0.6-9.6,1.8-14.5,2.2c-12.6,1.2-25.1,2.3-37.7,3.1c-9.3,0.6-18.7,0.2-28,1
		c-16.5,1.5-32.7-1.6-49-3.4c-9.4-1-18.8-1.9-28.1-3c-7.1-0.8-14.1-1.9-21.2-2.9c-1.7-0.2-3.4-0.3-5.1-0.5c-2.9-0.3-4.2,0.7-4.1,3.6
		c0.1,6.1,0.5,12.3,1.1,18.4c1-6.7,0.5-13.4-0.2-20c3.5-0.5,4.3,0.2,4.5,3.5c0.6,10.2,1.2,20.4,1.8,30.7c0,0.6,0.4,1.1,0.6,1.6
		c0.2,0,0.4-0.1,0.6-0.1c-0.2-3.7-0.4-7.3-0.5-11c-0.3-7-0.5-14.1-0.7-21.1c-0.1-2.7,0.8-3.3,3.4-2.8c2,0.4,4,1,6.1,1.3
		c2.2,0.3,2.9,1.6,3,3.6c0.2,2.7,0.5,5.3,0.8,8c0.1,0.6,0.3,1.2,0.4,1.8C194,460.4,194.3,460.4,194.5,460.4z"/>
	<path class="st0" d="M153.9,376.4c0.2,2.2-1,3.7-3.1,4.7c-5.1,2.4-10.5,3-16.1,2.4c-3.3-0.4-6.5-0.5-9.8-0.8c0,0.3-0.1,0.5-0.1,0.8
		c0.3,0.2,0.5,0.5,0.8,0.5c7.1,0.7,14.1,2.1,21.2,0.7c2.7-0.5,5.3-1.8,7.8-3c1.5-0.7,1.8-3.7,0.9-5.4c-0.3-0.6-0.5-1.5-0.3-2.1
		c4-12,4.4-24.5,5.2-36.9c0.2-3.5,0.3-7,0.4-10.5c0-0.8-0.1-1.5-0.1-2.3c-0.3,0-0.5-0.1-0.8-0.1c-0.3,1.2-0.7,2.4-0.8,3.6
		c-0.8,9.7-1.3,19.4-2.4,29c-0.5,4.9-1.9,9.7-3,14.6c-0.2,0.9-0.7,1.9-1.4,2.5c-4.4,3.2-8.6,6.9-14.7,6.3c-2.2-0.2-4.5,0-6.8,0
		c0.8,1.8,7.3,3,12,1.6C146.6,380.7,150.2,378.3,153.9,376.4z"/>
	<path class="st0" d="M298.6,87.6c-0.7-0.1-1.4-0.4-2.1-0.4c-5.8,0.2-11.6,0.6-17.3,0.6c-3.3,0-6.6-0.5-10-0.7
		c-4.6-0.2-9.2-0.1-13.8-0.4c-7.4-0.5-14.9-1.4-22.3-1.9c-5.9-0.4-11.9-0.5-17.8-0.8c-1.7-0.1-3.3-0.4-5-0.6
		c-0.1,0.3-0.1,0.6-0.2,0.9c1.9,0.3,3.7,0.8,5.6,1c6.5,0.5,13,0.8,19.6,1.3c1.1,0.1,2,1,3.1,1.4c0.7,0.3,1.5,0.9,2.2,0.8
		c13.1-1.6,26.1,0.5,39.2,0.2c5.5-0.2,11-0.2,16.5-0.3c0.5,0,1-0.2,1.5-0.3C298,88.2,298.3,87.9,298.6,87.6z"/>
	<path class="st0" d="M399.4,100.4c0,3.3,0.1,6.6,0,9.9c-0.3,11.3-0.7,22.6-1,33.8c-0.2,6.1-0.4,12.1-0.5,18.2
		c-0.3,11-0.5,22-0.8,32.9c0,0.9,0.2,1.7,0.3,2.6c0.3,0,0.6,0,0.8,0c0.2-0.8,0.5-1.5,0.5-2.3c0.2-7.6,0.4-15.1,0.6-22.7
		c0.2-7.9,0.3-15.7,0.4-23.6c0.1-9.9,0.2-19.9,0.4-29.8c0.1-4.4,0.6-8.7,0.7-13.1c0.1-2.1-0.4-4.1-0.7-6.2
		C400,100.3,399.7,100.3,399.4,100.4z"/>
	<path class="st0" d="M154.3,406.7c-0.1,1.1-0.3,2.3-0.4,3.4c-0.5,8.8-2,17.6-1.5,26.5c0.6,13,0.6,26,0.9,38.9
		c0,0.5-0.1,1.1,0.1,1.6c0.1,0.4,0.5,0.6,0.8,0.9c0.3-0.3,0.9-0.7,0.9-1c0-1.7-0.1-3.4-0.1-5.1c-0.3-11.1-0.7-22.2-0.7-33.4
		c0-9,0.8-18.1,1.1-27.1c0.1-1.6,0-3.2,0-4.7C155,406.7,154.6,406.7,154.3,406.7z"/>
	<path class="st0" d="M405.6,468.7c0.2-0.5,0.7-1,0.7-1.5c0.2-3.2,0.3-6.4,0.4-9.5c0-2.1-0.3-4.3-0.2-6.4c0.1-7.2,0.2-14.4,0.5-21.5
		c0-1.3,0.4-2.6,1.1-3.7c0.7-1.3,0.8-2.3-0.3-3.1c-1.5-1.1-1.5-2.5-1.3-4.1c0.2-1.9,0-3.9-0.1-5.9c-0.4,0-0.7,0-1.1,0
		c-1.5,9.3,0.2,18.6-0.3,27.9c-0.5,9.3-0.1,18.6-0.1,27.8C405,468.6,405.3,468.6,405.6,468.7z"/>
	<path class="st0" d="M95.8,390.5c-0.4-0.7-0.6-1.5-1.2-1.9c-7.7-5.7-15.4-11.4-23.1-17.1c-0.5-0.3-1-0.6-1.5-0.8
		c-0.1,0.1-0.3,0.3-0.4,0.4c0.5,0.6,0.9,1.3,1.5,1.8c5.4,4.1,10.8,8.2,16.1,12.3c1.1,0.8,2,1.9,3.4,3.1c-1.2,0.2-1.9,0.3-2.8,0.4
		c0.2,0.4,0.2,0.8,0.5,1c4.7,3.7,9.4,7.5,15.3,9.4c1.1,0.4,1.9,1.5,2.9,2.2c0.5,0.4,1.1,0.9,1.8,1c0.3,0,1.2-0.9,1.1-1.1
		c-0.3-0.6-0.8-1.2-1.3-1.5c-3.7-1.9-7.5-3.5-11.1-5.6c-2.2-1.3-4.1-3.1-6.1-4.7c0.2-0.2,0.3-0.4,0.5-0.6
		C92.8,389.3,94.3,389.9,95.8,390.5L95.8,390.5z"/>
	<path class="st0" d="M401.6,178.3c-0.2,1.1-0.5,2.1-0.6,3.2c-0.4,9.4-0.9,18.8-1.2,28.2c-0.2,5.2-0.1,10.4-0.1,15.5
		c0,0.8,0.1,1.6,0.3,2.4c0.1,0.2,0.5,0.5,0.8,0.5c0.2,0,0.5-0.3,0.6-0.6c0.1-0.5,0.1-1,0.1-1.5c0.2-10,0.4-20,0.6-30
		c0.1-5.2,0.3-10.4,0.4-15.6c0-0.7-0.1-1.4-0.1-2.1C402.1,178.4,401.9,178.3,401.6,178.3z"/>
	<path class="st0" d="M402,96.6c0,15.3,0,30.7,0,46.6c0.3-1.7,0.7-2.8,0.8-3.9c0.8-8.6,1.7-17.1,0.7-25.8c-0.3-2.8,0.2-5.6,0.6-8.4
		c0.4-3-0.2-5.8-1.2-8.6C402.6,96.6,402.3,96.6,402,96.6z"/>
	<path class="st0" d="M262.8,497.6c-1.2-12.8-1.2-25.7-2.2-38.6c-0.4,0-0.8,0-1.2,0c-0.8,12.6,1.5,25.2,1.4,37.8
		c0,0.3,0.7,0.7,1.1,1C262.2,497.7,262.5,497.6,262.8,497.6z"/>
	<path class="st0" d="M285.5,451.9c-2.9-1.4-45.7-4.1-47.2-3.1C254.2,450.3,269.8,452.7,285.5,451.9z"/>
	<path class="st0" d="M413.4,454c-0.1,0.7-0.2,1.4-0.2,2c0.1,5.4,0.5,10.8,0.4,16.2c-0.1,3.5-0.8,7-1.2,10.6
		c-0.1,0.6-0.4,1.2-0.4,1.7c0,0.6,0.4,1.1,0.7,1.6c0.3-0.4,0.8-0.7,1-1.2c2.1-5.8,2-11.8,1.6-17.8c-0.2-3,0-5.9-0.2-8.9
		c-0.1-1.5-0.5-2.9-0.7-4.3C413.9,453.9,413.7,454,413.4,454z"/>
	<path class="st0" d="M352.6,489c-0.6-11.5-1.3-23.1-1.9-34.6c-2,1.1-1.9,2.8-1.8,4.3c0.5,6.2,1,12.4,1.6,18.6
		c0.3,3.5,0.7,6.9,1,10.4c0,0.5,0.2,0.9,0.3,1.4C352.1,489.1,352.4,489.1,352.6,489z"/>
	<path class="st0" d="M160.1,401.7c0.2-0.3,0.6-0.7,0.6-1c-0.9-12.3,0.8-24.6-0.6-36.8C158.1,376.4,159.4,389,160.1,401.7z"/>
	<path class="st0" d="M301.1,460.1c-0.1,0.9-0.3,1.8-0.2,2.7c1,7.3,1.9,14.7,3,22c0.4,2.8,1.5,5.6,2.3,8.3c0.1,0.4,0.8,0.6,1.2,0.9
		c0.1-0.5,0.4-1,0.2-1.4c-2.6-6.1-2.3-12.8-3.4-19.2c-0.6-3.9-1.2-7.9-1.8-11.8c-0.1-0.5-0.4-1-0.6-1.5
		C301.6,460.1,301.3,460.1,301.1,460.1z"/>
	<path class="st0" d="M250.7,464c0,11.1,0,22.1,0,33.1c0.3,0,0.5,0.1,0.8,0.1c0.2-0.7,0.5-1.3,0.6-2c0.2-9.1,0.4-18.2,0.6-27.3
		C252.7,465.7,252.3,465.1,250.7,464z"/>
	<path class="st0" d="M380.6,483.4c2.4-2.5,1.4-29.6-1.3-32.9c-0.2,1.2-0.5,2.4-0.4,3.6c0.4,4.1,1,8.2,1.3,12.4
		c0.3,4.6,0.3,9.2,0.4,13.7C380.6,481.3,380.6,482.4,380.6,483.4z"/>
	<path class="st0" d="M95.9,390.5c3.9,2,7.8,4.1,11.8,6.1c1.5,0.8,3.1,1.4,4.6,2.1c4.6,2.3,9.2,4.5,13.6,6.9c2.1,1.2,4,2.7,6.1,4.1
		c0.7,0.5,1.4,0.8,2.1,1.3c0.2-0.2,0.4-0.5,0.5-0.7c-1-0.9-1.9-2.2-3.1-2.8c-9.1-4.7-18.2-9.2-27.3-13.8c-1.8-0.9-3.5-1.9-5.4-2.6
		C97.9,390.7,96.8,390.7,95.9,390.5C95.8,390.5,95.9,390.5,95.9,390.5z"/>
	<path class="st0" d="M203,492c0.2-0.7,0.7-1.4,0.6-2.1c-0.2-2.5,0-5.2-0.9-7.5c-2.3-6.3-2.3-12.8-2.7-19.3c-0.1-2-0.3-4-0.5-6.5
		C197.5,459,200.1,485.9,203,492z"/>
	<path class="st0" d="M409.9,459.2c-0.6,9.7-1.2,19.4-1.8,29c0.3,0.1,0.6,0.2,0.9,0.2c0.3-0.8,0.7-1.6,0.8-2.5
		c0.6-6.4,1.1-12.7,1.5-19.1c0.1-2.3-0.3-4.5-0.5-6.8c0-0.4-0.4-0.7-0.6-1.1C410.2,459.1,410.1,459.2,409.9,459.2z"/>
	<path class="st0" d="M399.5,414.5c-3.9,3.9-7.2,8-11.2,11.2c-4,3.2-8.6,5.6-12.9,8.3C379.8,435.9,399.8,420.3,399.5,414.5z"/>
	<path class="st0" d="M263.7,459.3c1.2,12.1,2.5,24.3,3.7,36.4c0.3,0,0.7,0,1,0c0.1-1.1,0.3-2.2,0.2-3.3c-1-9.6-2-19.2-3.1-28.8
		c-0.2-1.5-0.7-3-1-4.6C264.2,459.2,263.9,459.3,263.7,459.3z"/>
	<path class="st0" d="M327.1,492.1c0.1-0.8,0.4-1.6,0.3-2.4c-0.8-6.2-1.6-12.3-2.4-18.5c-0.4-3-0.4-6-0.7-9.1
		c-0.1-1.1-0.7-2.1-1-3.1c-0.2,0.1-0.5,0.1-0.7,0.2c1.2,10.9,2.4,21.9,3.6,32.8C326.4,492.1,326.7,492.1,327.1,492.1z"/>
	<path class="st0" d="M159.5,444.2c-2,5.3-0.5,30.1,1.8,32.9C160.7,466,160.1,455.1,159.5,444.2z"/>
	<path class="st0" d="M409.7,495.1c3.7-2.1,7.1-4.5,8.2-9c0.9-3.5,1.7-7,2.3-10.6c0.3-1.9-0.2-3.9-0.3-5.9c-0.4,0-0.7,0-1.1,0
		c0,1.3,0.2,2.6,0,3.9c-0.7,3.8-1.4,7.6-2.3,11.3c-0.7,3.2-2.4,5.9-5.2,7.7c-0.8,0.6-1.7,1.1-2.5,1.7
		C409.1,494.5,409.4,494.8,409.7,495.1z"/>
	<path class="st0" d="M387.4,84.3c7.4,0.5,14.8,1.1,22.3,1.5c2.2,0.1,4.3-0.3,6.8-0.5c-1.3-1.6-1.3-1.5-7.2-1.3
		c-2.5,0.1-5-0.2-7.5-0.4c-2.4-0.1-4.9-0.3-7.3-0.3C391.9,83.4,389.3,82.5,387.4,84.3z"/>
	<path class="st0" d="M309.4,93.5c11.3,0.3,22.5,2.5,34-0.4c-0.4-0.2-0.9-0.6-1.3-0.6c-1.8,0.1-3.7,0.4-5.5,0.4
		c-6.1,0-12.3-0.1-18.4-0.1c-2.9,0-5.8,0-8.8,0C309.5,93.1,309.4,93.3,309.4,93.5z"/>
	<path class="st0" d="M53.3,335.8c1.8,10.3,7.5,19,12.2,28.2c0.3-2-0.3-3.8-1.2-5.5c-3.8-7.2-8-14.2-10-22.2
		c-0.1-0.2-0.3-0.4-0.5-0.7C53.7,335.7,53.5,335.7,53.3,335.8z"/>
	<path class="st0" d="M149.2,397c-0.4,4.8-1,9.5-1.2,14.3c-0.1,2.7-0.3,5.1-3.6,6c0.1,0.2,0.2,0.4,0.2,0.6c0.6,0.2,1.5,0.8,1.9,0.6
		c1.1-0.6,2.4-1.5,2.7-2.5c0.6-1.9,0.5-3.9,0.6-5.9c0.2-4.8,0.4-9.6,0.6-14.3C150,396.2,149.6,396.6,149.2,397z"/>
	<path class="st0" d="M420.3,460.8c-2.3-11.2-4.6-22.5-6.9-33.7c-0.3,0.1-0.5,0.1-0.8,0.2c2.2,11.3,3.6,22.7,6.8,33.7
		C419.7,460.9,420,460.9,420.3,460.8z"/>
	<path class="st0" d="M298.6,87.6c-0.3,0.3-0.6,0.6-0.9,0.9c0.3,0.1,0.7,0.3,1,0.3c10.4,0.4,20.8,0.7,31.2,1c0.9,0,1.7,0,2.6,0
		c0-0.2,0-0.5,0-0.7c-1-0.1-2.1-0.1-3.1-0.2c-9.3-0.5-18.5-1.1-27.8-1.6C300.6,87.3,299.6,87.5,298.6,87.6z"/>
	<path class="st0" d="M288.8,491.2c-0.5-9.6-1.1-19.2-1.7-29.3C285.5,464.5,286.8,489.2,288.8,491.2z"/>
	<path class="st0" d="M394.3,178.5c1.9-2.4,2.8-21.5,1.3-24.2C394.5,155.4,393.3,175.9,394.3,178.5z"/>
	<path class="st0" d="M395.4,237.7c-0.6,7.8-1.2,15.7-1.8,23.5c0.3,0.1,0.6,0.2,0.9,0.2c0.3-0.4,0.8-0.8,0.9-1.2
		c0.5-7.2,1-14.5,1.4-21.7c0-0.3-0.3-0.6-0.4-0.9C396,237.6,395.7,237.7,395.4,237.7z"/>
	<path class="st0" d="M405,474.3c0,7.7-1.9,15.1-5,22.1C404.2,494.8,407.9,478.3,405,474.3z"/>
	<path class="st0" d="M363.3,484.8c-0.2-3.2-0.4-6.4-0.6-9.6c-0.2-3.4-0.5-6.8-0.9-10.2c-0.1-0.9-0.6-1.7-1.3-2.4
		c-0.1,7.6,0.6,15,1.9,22.3C362.7,484.9,363,484.9,363.3,484.8z"/>
	<path class="st0" d="M243.9,467.9c-1.2,9,1.1,17.7,1,26.6c0.4,0,0.8,0,1.2-0.1c-0.5-8.9-1-17.8-1.5-26.6
		C244.4,467.8,244.1,467.9,243.9,467.9z"/>
	<path class="st0" d="M195.7,443.4c5.1,1,10.1,1.9,15.2,2.9c0.1-0.3,0.1-0.6,0.2-0.9c-2.4-0.6-4.7-1.2-7.1-1.8
		c0-0.2,0.1-0.5,0.1-0.7c4.3,0.6,8.6,1.1,12.9,1.7C210.1,441.8,202.9,442.3,195.7,443.4z"/>
	<path class="st0" d="M402.7,169.6c0.3-0.9,0.6-1.4,0.6-1.9c0.1-5.3,0.1-10.6,0.1-15.9c0-0.5-0.6-1-1-1.5c-0.3,0.4-0.9,0.9-0.9,1.3
		c0.1,5.7,0.3,11.4,0.4,17.1C402,168.9,402.2,169,402.7,169.6z"/>
	<path class="st0" d="M188,431.3c-6.8-4.5-13-8.7-19.3-12.8C169.1,421.5,181.8,430.2,188,431.3z"/>
	<path class="st0" d="M186.7,450.9c0.9,7,1.8,14.1,2.7,21.1c0.3,0,0.6-0.1,0.9-0.1c-1.1-7,0.6-14.4-3-21.1
		C187.1,450.8,186.9,450.8,186.7,450.9z"/>
	<path class="st0" d="M302.2,495.9c2.2-3.2,0.9-14.9-2.2-17.6C300.7,484,301.4,489.7,302.2,495.9z"/>
	<path class="st0" d="M342.3,477.8c-0.7,5.7-1.3,11.3-2,17C343,493,344.5,480.2,342.3,477.8z"/>
	<path class="st0" d="M256.1,481.7c-2.2,3.6-2.1,15.7,0.3,17.6c0-1.6,0-3,0-4.4c0.1-2.2,0-4.5,0.4-6.7
		C257.1,485.9,257.3,483.9,256.1,481.7z"/>
	<path class="st0" d="M235.4,457.7c-0.5,7.7-0.3,15.3,1.1,22.9c0-7.7,0-15.3,0-23C236.1,457.7,235.7,457.7,235.4,457.7z"/>
	<path class="st0" d="M375.7,476.1c0.2-6.6,0.7-13.3-2.5-19.7c0.5,6.6,1.1,13.2,1.6,19.7C375.1,476.1,375.4,476.1,375.7,476.1z"/>
	<path class="st0" d="M395.3,471c2.3-7.2,0.3-13.1-1.8-19.1c-0.2,0-0.5,0-0.7,0c0,0.8-0.1,1.6,0,2.4c1.1,4.7,2.6,9.4,1.7,14.4
		C394.5,469.3,394.9,469.9,395.3,471z"/>
	<path class="st0" d="M396.3,108.5c-0.3,6.9-0.5,13.9,0.2,20.8C397.9,127.6,397.7,109.8,396.3,108.5z"/>
	<path class="st0" d="M194.8,466.7c-1.1,2,2.1,23.9,3.6,25.6c0-1.1,0.2-1.9,0-2.5c-2.5-5.4-1.8-11.2-2.5-16.9
		C195.7,470.9,195.2,468.8,194.8,466.7z"/>
	<path class="st0" d="M55.7,356.1c3.3,5.2,5,11.4,9.7,15.8c0.2-0.1,0.5-0.3,0.7-0.4c-3.1-5.3-6.3-10.6-9.4-15.9
		C56.4,355.7,56,355.9,55.7,356.1z"/>
	<path class="st0" d="M406.1,402.5c1.4-1.8,1.1-14.1-0.3-15.3C404.6,389.6,404.9,401.2,406.1,402.5z"/>
	<path class="st0" d="M167.6,466.6c-0.6,5.8,0.9,11.5,1.6,17.2c0.3,0,0.7-0.1,1-0.1c-0.5-5.7-1-11.4-1.4-17.2
		C168.4,466.6,168,466.6,167.6,466.6z"/>
	<path class="st0" d="M165.1,468.8c0-3,0-6,0-9c0-2.2,0.1-4.4,0-6.6c0-0.8-0.4-1.5-0.9-2.2c-1.6,6.1-0.2,11.9,0.3,17.8
		C164.6,468.8,164.9,468.8,165.1,468.8z"/>
	<path class="st0" d="M146.1,427.7c-2-5.3-4-10.7-8.3-14.7c-0.2,0.1-0.4,0.2-0.6,0.3c2.7,4.9,5.5,9.8,8.2,14.7
		C145.6,428,145.9,427.9,146.1,427.7z"/>
	<path class="st0" d="M301.3,92.5c-7.4-0.3-14.7-0.6-22.1-1c0,0.3,0,0.7,0,1c7.4,0.4,14.7,0.8,22.1,1.2
		C301.3,93.3,301.3,92.9,301.3,92.5z"/>
	<path class="st0" d="M402.7,87.9c-6.6-0.3-13.3-0.6-19.9-1c0,0.3,0,0.6,0,0.8c6.6,1.1,13.2,1.5,19.9,1.2
		C402.7,88.6,402.7,88.2,402.7,87.9z"/>
	<path class="st0" d="M346,491.5c0.6-7.2,1.2-14.4,1.8-21.6c-0.3-0.1-0.5-0.1-0.8-0.2c-0.2,0.6-0.6,1.3-0.6,1.9
		c-0.6,6.2-1.1,12.5-1.6,18.7c0,0.4,0.2,0.8,0.4,1.2C345.4,491.5,345.7,491.5,346,491.5z"/>
	<path class="st0" d="M370.7,435.4c-3.6,1.3-7.1,2.8-10.8,3.8c-3.8,1-7.7,1.4-11.6,2.1c2.7,1.5,17.7-2,22.5-5.3
		C370.8,435.9,370.7,435.7,370.7,435.4z"/>
	<path class="st0" d="M254.6,461.1c0,4.9,0,9.8,0,15C256.9,474.3,256.9,466.1,254.6,461.1z"/>
	<path class="st0" d="M385,489.1c-0.5-5.9,1.4-11.7-0.2-17.6c-0.2,0-0.5,0-0.7,0c0,5.8,0,11.7,0,17.5C384.3,489,384.7,489,385,489.1
		z"/>
	<path class="st0" d="M396.5,215.4c-0.4,5.7-0.7,10.9-1,16.6C398,230,398.8,217.8,396.5,215.4z"/>
	<path class="st0" d="M396.1,336.5c1-0.9,2.3-13,1.6-16.1c-0.5,0.5-1.1,0.8-1.1,1.2c-0.5,4.9-0.9,9.9-1.3,14.8
		C395.6,336.4,395.8,336.5,396.1,336.5z"/>
	<path class="st0" d="M144.8,482c-1.9,1.2-1.9,3.1-1.8,4.7c0.5,3.9,3.9,5.3,6.7,7.1c0.2-0.2,0.4-0.3,0.5-0.5
		c-1.5-1.5-3.4-2.8-4.3-4.7C145.1,486.7,145.2,484.3,144.8,482z"/>
	<path class="st0" d="M146.1,397.1c-0.5,5.7-0.9,11.4-1.4,17.1c0.3,0,0.7,0,1,0.1c1-5.7,1.6-11.4,1.4-17.2
		C146.8,397.1,146.5,397.1,146.1,397.1z"/>
	<path class="st0" d="M356,475.9c1.6-1.6,0.2-15-1-16.4c-0.2,0-0.4,0-0.7,0.1C354.9,465.1,355.5,470.5,356,475.9z"/>
	<path class="st0" d="M394.3,439.1c-6.6,0.6-12.6,1.2-19,1.9C377.5,442.6,391.2,441.1,394.3,439.1z"/>
	<path class="st0" d="M280.3,474.8c-0.3-4.9-0.6-9.9-0.9-14.8c-0.4,0-0.8,0.1-1.1,0.1c0.2,4.9-0.2,9.9,1.2,14.8
		C279.8,474.8,280.1,474.8,280.3,474.8z"/>
	<path class="st0" d="M146.3,447.8c-1.3,1.2-2.4,8.8-1.7,11.4C146.9,457.1,147.9,451.2,146.3,447.8z"/>
	<path class="st0" d="M364.5,87.2c5.6,0,11.2,0,16.7,0c0-0.3,0-0.5,0-0.8c-5.6-0.3-11.2-0.6-16.8-0.4
		C364.5,86.5,364.5,86.9,364.5,87.2z"/>
	<path class="st0" d="M193.4,90c-5.5,0-10.9,0-16.4,0c0,0.2,0,0.4,0,0.6c5.5,0,10.9,0,16.4,0C193.4,90.4,193.4,90.2,193.4,90z"/>
	<path class="st0" d="M160.3,429.4c0-4.4,0-8.8,0-13.6C158.6,417.7,158.6,426.2,160.3,429.4z"/>
	<path class="st0" d="M202.2,456.5c0.2,4.7,0.4,8.9,0.6,13.1C204.6,467.1,204.2,458.1,202.2,456.5z"/>
	<path class="st0" d="M206.5,489.8c0.5-4.3-0.6-11-2-12.7C203.6,479.8,204.8,488.7,206.5,489.8z"/>
	<path class="st0" d="M136,419.8c1.7,4,3.4,8.1,5.2,12.5C142.5,429.7,139.3,422.1,136,419.8z"/>
	<path class="st0" d="M153.5,388.1c0,4.6,0,8.8,0,13.4C155.4,399,155.4,390.7,153.5,388.1z"/>
	<path class="st0" d="M155.2,87.9c0,5,0,10.1,0,15.6C156.7,100.7,156.7,90.6,155.2,87.9z"/>
	<path class="st0" d="M49,317.6c0.6-3.8,1.2-7.6,1.9-11.9C48.5,307.3,47.3,315.3,49,317.6z"/>
	<path class="st0" d="M242.2,477.9c-0.4-5-0.7-10.1-1.1-15.1c-0.4,0-0.8,0.1-1.2,0.1c0.4,5,0.7,10.1,1.1,15.1
		C241.4,477.9,241.8,477.9,242.2,477.9z"/>
	<path class="st0" d="M336.5,446.4c-5.5-1.2-10.9-0.9-16.3,0.4c0,0.2,0,0.4,0,0.6C325.6,447.1,331,446.7,336.5,446.4z"/>
	<path class="st0" d="M411,499.9c5.3,0.1,7.5-4.2,11.1-6.3c-0.2-0.3-0.3-0.6-0.5-0.8C418.2,495,414.8,497.3,411,499.9z"/>
	<path class="st0" d="M304.3,445.9c5.7-0.4,11.4-0.8,17.2-1.3c0-0.3,0-0.6-0.1-0.9c-5.7,0.4-11.4,0.8-17.1,1.2
		C304.2,445.2,304.2,445.6,304.3,445.9z"/>
	<path class="st0" d="M417.4,106.7c0.7-3.6,2.2-7,1.2-10.9C417.1,97.1,416.4,103,417.4,106.7z"/>
	<path class="st0" d="M423.3,480.2c1.6-3.4,1.2-7.2-1.6-12.1C422.2,471.9,422.7,475.9,423.3,480.2z"/>
	<path class="st0" d="M269.9,479.4c0.4,3.8,0.8,7.6,1.2,11.7C272.5,489.6,271.9,481.3,269.9,479.4z"/>
	<path class="st0" d="M395.9,373.3c0.7-2.8,1.3-5.4,1.9-8c0.1-0.4-0.3-0.9-0.7-1.2c-0.2-0.1-1,0.2-1.1,0.4c-0.4,2.8-0.7,5.6-1,8.4
		C395.1,372.9,395.4,373,395.9,373.3z"/>
	<path class="st0" d="M336.3,463.1c-0.5,3.6-0.8,7.2,0.2,10.8c0.2,0,0.5,0,0.7,0c0-3.6,0-7.2,0-10.8
		C336.9,463.1,336.6,463.1,336.3,463.1z"/>
	<path class="st0" d="M286,449.8c4.1,0,8.2,0,12.3,0c0-0.3,0-0.6,0-0.9c-4.1-0.5-8.2,0.2-12.3,0.3C286,449.4,286,449.6,286,449.8z"
		/>
	<path class="st0" d="M159.4,107.2c-0.3-3.7-0.5-7.4-0.8-11.1c-0.3,0-0.6,0-0.9,0c0.2,3.7,0.3,7.5,0.5,11.2
		C158.6,107.2,159,107.2,159.4,107.2z"/>
	<path class="st0" d="M306.2,449.1c4,0.4,7.9,0,11.7-1.6c-3.9,0.2-7.8,0.4-11.8,0.7C306.2,448.5,306.2,448.8,306.2,449.1z"/>
	<path class="st0" d="M241.8,443.7c-3.9-0.7-7.7-1.4-11.6-2c-0.1,0.3-0.1,0.6-0.2,0.9c3.8,0.8,7.7,1.5,11.5,2.3
		C241.6,444.5,241.7,444.1,241.8,443.7z"/>
	<path class="st0" d="M274.9,470.8c-0.1-3.6,0.6-7.2-0.7-10.7c-0.3,0-0.6,0-0.9,0.1c0.3,3.6,0.6,7.1,0.9,10.7
		C274.4,470.8,274.6,470.8,274.9,470.8z"/>
	<path class="st0" d="M177.5,438.3c-3.4-1-6.9-2-10.3-3c0.1,1.4,6.4,3.8,10.1,3.6C177.4,438.7,177.5,438.5,177.5,438.3z"/>
	<path class="st0" d="M282.6,458.8c-0.2,3.1-0.3,6.2,0.6,9.2c0.3,0,0.6-0.1,0.9-0.1c-0.2-3.1-0.4-6.2-0.6-9.2
		C283.2,458.7,282.9,458.8,282.6,458.8z"/>
	<path class="st0" d="M248.6,468.7c0-3.2,0-6.4,0-9.5c-0.2,0-0.5,0-0.7,0c-0.8,3.2-0.5,6.4,0,9.5
		C248.2,468.7,248.4,468.7,248.6,468.7z"/>
	<path class="st0" d="M182.8,450.9c0.3,3,0.7,6,1,9C185.4,457.3,184.9,452.3,182.8,450.9z"/>
	<path class="st0" d="M228.3,441.1c-4-0.7-7.9-1.4-11.9-2.1c0,0.3-0.1,0.5-0.1,0.8c4,0.8,7.9,1.6,11.9,2.4
		C228.2,441.9,228.2,441.5,228.3,441.1z"/>
	<path class="st0" d="M319.8,491.6c2-2.1,2-6.7,0-9.4C319.8,485.4,319.8,488.2,319.8,491.6z"/>
	<path class="st0" d="M356.8,444.9c-4.1,0-8.2,0-12.3,0c0,0.2,0,0.4,0,0.6c4.1,0,8.2,0,12.4,0C356.8,445.3,356.8,445.1,356.8,444.9z
		"/>
	<path class="st0" d="M166.4,449.2c0.2,3.6,0.5,6.7,0.7,10.4C168.5,456.9,168.3,450.6,166.4,449.2z"/>
	<path class="st0" d="M229,484.7c0.2,2.8,0.5,5.5,0.7,8.3c0.4,0,0.7-0.1,1.1-0.1c-0.2-2.8-0.4-5.5-0.7-8.3
		C229.8,484.6,229.4,484.7,229,484.7z"/>
	<path class="st0" d="M317.8,464.9c-1.6,2-1.1,5.6,0.5,8.3c0.2,0,0.4-0.1,0.6-0.1C318.6,470.6,318.2,468,317.8,464.9z"/>
	<path class="st0" d="M112.6,370.8c2.1,2,4.3,3.9,6.9,5.2c0.2-0.3,0.4-0.5,0.6-0.8c-2.3-1.7-4.6-3.4-6.9-5.1
		C113,370.4,112.8,370.6,112.6,370.8z"/>
	<path class="st0" d="M149.2,397c0.4-0.4,0.8-0.8,1.3-1.2c0-1.6,0-3.2,0-4.8c-0.2,0-0.5,0-0.7,0C148.5,392.8,148.4,394.8,149.2,397z
		"/>
	<path class="st0" d="M242.6,490c-0.1-2.1-0.3-4.2-0.4-6.3c-0.3,0-0.5,0-0.8,0.1c0,2.1,0,4.2,0,6.3C241.8,490,242.2,490,242.6,490z"
		/>
	<path class="st0" d="M279.5,66.6c-1.5-0.3-2.9-0.8-4.4-0.8c-8,0.2-16,0.4-24,1.1c9.4,2.1,18.8-1.5,28.1,1
		C279.4,67.5,279.5,67.1,279.5,66.6z"/>
	<path class="st0" d="M334.7,52c6.5,1.9,13.1,3.7,19.6,5.6c0.1-0.4,0.2-0.8,0.3-1.1C348.3,54,341.8,52,335,51
		C334.9,51.3,334.8,51.6,334.7,52z"/>
	<path class="st0" d="M287.3,45.1c-5-2-18.1,3-20,7.6c3.4-1.7,6.4-3.6,9.7-4.8C280.2,46.6,283.6,46,287.3,45.1z"/>
	<path class="st0" d="M270.8,56.2c-4.9-2.2-12-1.9-13.6,0.4C259.2,57.7,269.1,57.5,270.8,56.2z"/>
	<path class="st0" d="M301.5,62.9c-2.7,0-5.4-0.1-8,0c-3.5,0.2-7,0.7-10.5,1.1c-0.7,0.1-1.4,0.1-2,0.1c0,0.3,0,0.5,0,0.8
		c3.5,0,6.9,0.2,10.4-0.1c3.4-0.2,6.8-0.9,10.2-1.4C301.5,63.3,301.5,63.1,301.5,62.9z"/>
	<path class="st0" d="M312,63.9c5.4,0.8,10.5,1.6,15.7,2.4C326.1,63.7,315.4,61.8,312,63.9z"/>
	<path class="st0" d="M298.7,68c-3.9-1.6-12.8-1.9-14.7-0.2c5.1,0.4,9.9,0.7,14.7,1.1C298.7,68.6,298.7,68.3,298.7,68z"/>
	<path class="st0" d="M352.8,67.9c0.4,0.3,0.7,0.8,1.1,0.8c1.6,0.1,2.3,1,2.9,2.3c0.1,0.4,0.7,0.7,1.1,0.8c0.3,0,0.9-0.7,0.8-0.8
		c-0.4-1.1-0.7-2.5-1.5-3.2c-0.8-0.7-2.2-0.7-3.4-0.9C353.4,66.8,353.1,67.4,352.8,67.9z"/>
	<path class="st0" d="M332,54.5c2.8,1.9,5.9,3.1,9.4,3c0.1-0.3,0.2-0.6,0.3-0.8c-3.1-1-6.3-2-9.4-3C332.2,54,332.1,54.3,332,54.5z"
		/>
	<path class="st1" d="M169.3,259.3c0-14.8,0-29.5,0-43.4c-1,3-1.8,39.9-0.7,43.4C168.9,259.3,169.1,259.3,169.3,259.3z"/>
	<path class="st1" d="M364.2,430c-1.3,0.2-2.6,0.4-3.9,0.5c-1.2,0.2-2.5,0.3-4.1,0.5c0.6,0.2,0.9,0.4,1.2,0.5c-3.5,0.2-7,0.1-10,2.6
		c-0.1-0.2-0.1-0.4-0.2-0.6c0.2-0.2,0.5-0.3,0.9-0.6c-1.5,0-2.9,0-4.6,0c1.7,1.7,3.5,1.5,5.2,1.2c4.5-0.8,9-1.6,13.5-2.6
		C363,431.4,363.6,430.6,364.2,430L364.2,430z"/>
	<path class="st1" d="M171.5,334.5c0,2.4,0,4.7,0,6.9C174.1,339.8,174.2,336.2,171.5,334.5z"/>
	<path class="st1" d="M168.6,319.6c0,2.8,0,5.6,0,8.4c0.2,0,0.3,0,0.5,0c0.2-2.8,0.4-5.6,0.6-8.5
		C169.3,319.6,168.9,319.6,168.6,319.6z"/>
	<path class="st1" d="M173.7,193.1c0,1.6,0,3.2,0,4.8c0.2,0,0.4,0,0.6,0c0-1.6,0-3.2,0-4.8C174.1,193.1,173.9,193.1,173.7,193.1z"/>
	<path class="st1" d="M364.2,430c2.3,1.8,4-0.4,6-1C368.2,429.4,366.2,429.7,364.2,430C364.2,430,364.2,430,364.2,430z"/>
	<path class="st1" d="M154.3,274.7c0.3-11.9,0.6-23.7,0.7-35.6c0.1-6.1-0.5-12.2-0.3-18.2c0.2-9.7,1.1-19.4,1-29.2
		c0-6.3-0.9-12.7-2.1-19c-1.6-7.8-8.5-14.2-17.9-13.9c-7.4,0.2-14.7,0.2-21.9,2.2c-5.2,1.5-9.3,4.3-12.6,8.6
		c-4.2,5.4-6.6,11.6-8.1,18.2c-0.2,0.9-0.8,1.7-1,2.6c-1.2,7.3-2.6,14.7-3.5,22c-1.4,11.1-2.6,22.2-3.6,33.4
		c-1.3,15-2.5,30-3.4,45.1c-0.7,11.5-1.4,22.9,1,34.4c2.9,13.9,10.3,24.7,21.6,33.1c7.9,5.9,16.1,10.9,26,12.5
		c3.2,0.5,6.5,0.8,9.7,0.7c4.7-0.2,6.9-2.1,9.3-9.4c2.4-7.4,2.6-15.1,3.7-22.8c1.6-11.3,0.7-22.5,1.2-33.8c0.4-10.3,0.7-20.6,1-30.9
		C154.9,274.7,154.6,274.7,154.3,274.7z"/>
	<path class="st2" d="M88.3,350c-1.6-1.5-3.3-3-4.9-4.5"/>
	<path class="st2" d="M417.6,80.8c-5.4-0.4-10.9-0.8-16.3-1.2"/>
	<path class="st2" d="M398.4,79.7c-0.5,0.1-1,0.2-1.6,0.3"/>
	<path class="st2" d="M387.3,80.1c-6.3,0.2-12.6,0.3-18.9,0.6c-1.6,0.1-3.3,0.4-4.9,0.6"/>
	<path class="st2" d="M359.2,81.7c-6.9-0.2-13.8-0.5-20.7-0.5c-6.6,0-13.2,0.3-19.8,0.4c-2.9,0-5.8-0.1-8.7-0.2"/>
	<path class="st2" d="M304.3,81.2c-2.7,0-5.5,0.1-8.2,0.1"/>
	<path class="st2" d="M208,79c-2.5,0-4.9,0.1-7.4,0.1"/>
	<path class="st2" d="M138.9,126.9c-0.7,0.1-1.3,0.2-2,0.3"/>
	<path class="st2" d="M349.4,435.5c-0.4,0.1-0.7,0.2-1.1,0.3"/>
	<path class="st2" d="M193.1,494.2c3.2,0.9,6.3,2.2,9.6,2.6c12,1.4,24,2.7,36.1,3.6c12.1,0.9,24.2,1.1,36.3,1.6
		c5.2,0.2,10.4,0.6,15.6,0.4c7.1-0.3,14.1-1,21.2-1.5c3.1-0.2,6.2-0.2,9.4-0.5c6.7-0.5,13.4-1.1,20.1-1.8c4.3-0.4,8.6-0.8,12.9-1.4
		c5-0.7,10-1.6,14.9-2.4c0.4-0.1,0.7-0.4,1.1-0.6"/>
	<path class="st2" d="M396,442.7c-6.2,1-12.3,2.1-18.5,2.9c-6.1,0.8-12.3,1.1-18.5,1.9c-3.6,0.4-7.1,1.2-10.7,1.7
		c-5.3,0.7-10.5,1.5-15.8,2c-6.5,0.6-13.1,1.1-19.6,1.6c-4.4,0.3-8.9,0.3-13.4,0.5c-6.6,0.2-13.2,0.3-19.8,0.5
		c-5.1,0.1-10.1,0.6-15.2,0.4c-5.4-0.2-10.7-1-16.1-1.5c-3.3-0.3-6.7-0.7-10-1.1c-7.1-0.8-14.3-1.7-21.4-2.4
		c-5.4-0.6-10.8-1.1-16.3-1.6c-6.3-0.5-12.5-1.8-18.7-2.7c-2.5-0.4-2.9,0-2.9,2.4c0.2,7.3,0.3,14.6,0.7,21.8c0.2,4,0.8,8,1.3,12"/>
	<path class="st2" d="M399.8,100.3c0.1,4.9,0.3,9.8,0.2,14.7c-0.1,4.7-0.5,9.4-0.6,14c-0.2,5.7-0.2,11.4-0.2,17.2
		c-0.1,5.6-0.1,11.1-0.2,16.7c-0.3,11.7-0.6,23.3-0.9,35"/>
	<path class="st2" d="M150.1,452.5c-0.7,3.7-2,7.4-2.1,11.2c-0.1,3.3,1.3,6.5,1.8,9.8c0.3,1.9,0.7,3.9,0.4,5.8
		c-0.6,4.1,1.6,6.8,3.9,9.6c4.1,5,9.9,7.3,15.8,9.1c6.3,1.9,12.8,3.2,19.2,4.8"/>
	<path class="st2" d="M210,84c8.8,0.6,17.7,1.2,26.5,1.8c0.8,0.1,1.6,0.6,2.5,0.9"/>
	<path class="st2" d="M246.8,87.3c3.4,0.1,6.8,0.2,10.3,0.3c7,0.3,14,0.8,21,0.8c6.3,0,12.6-0.6,19-0.5c5.9,0.1,11.7,0.8,17.6,1
		c6,0.2,12,0.2,18.1,0.3"/>
	<path class="st2" d="M230.3,39.8c1-0.3,1.9-0.5,2.9-0.8"/>
	<path class="st2" d="M374.8,503.9c5.8-0.7,11.6-1.4,17.4-2.1"/>
	<path class="st2" d="M160.3,324.6c-0.2,2.8-0.6,5.5-0.6,8.3c0,8-0.9,16-2.1,23.8c-0.8,5-1.9,10-2.9,14.9c-0.3,1.7-1.2,3.1-2.7,4
		c-2.2,1.4-4.2,3-6.5,4.2c-4.6,2.4-9.4,1.9-14.3,0.9"/>
	<path class="st2" d="M154.8,406.6c-0.4,5.2-0.7,10.4-1.1,15.6"/>
	<path class="st2" d="M153.5,430.9c0.1,7.7,0.3,15.3,0.3,23c0,2.8-0.3,5.7-0.2,8.5c0.1,5.1,0.4,10.1,0.6,15.2"/>
	<path class="st2" d="M360.1,83.1c-0.8,0.3-1.6,0.8-2.5,0.9c-7,0.1-14,0.1-21,0.3c-4.9,0.2-9.8,1-14.7,1c-5.5,0.1-11-0.3-16.5-0.6
		c-3.3-0.2-6.7-0.4-10-0.7c-1-0.1-1.9-0.6-2.9-0.9"/>
	<path class="st2" d="M171.5,87.9c0.8-0.1,1.6-0.2,2.5-0.3"/>
	<path class="st2" d="M174.2,87.6c10.3-0.2,20.7-0.5,31-0.6c2.2,0,4.5,0.3,6.7,0.4"/>
	<path class="st2" d="M402,178.3c-0.2,5.4-0.5,10.8-0.7,16.3c-0.2,5.1-0.3,10.1-0.4,15.2c-0.1,6.2-0.2,12.3-0.2,18.5"/>
	<path class="st2" d="M402.7,96.3c0.1,8.1,0.5,16.2,0.4,24.3c-0.1,7.1-0.8,14.3-1.3,21.4"/>
	<path class="st2" d="M366.8,453c0.4,4.5,0.8,8.9,1.3,13.4c0.5,4.8,1.3,9.7,1.7,14.5c0.3,3.3,0.2,6.7,0.3,10c0.1,3.7,1,4.1,4.5,3
		c4-1.2,8.2-1.9,12.2-2.8c1.9-0.4,3.7-0.9,5.6-1.3"/>
	<path class="st2" d="M395.3,488.3c2.1-0.2,2.4-1.5,3-3.4c2-5.7,1.8-11.4,1.9-17.2c0.1-7.6-0.8-15-2.9-22.3"/>
	<path class="st2" d="M260,458.8c0.5,10.9,1,21.8,1.6,32.8c0.1,2,0.3,4,0.4,6"/>
	<path class="st2" d="M95.5,389.9c4.7,2.2,9.4,4.4,14,6.7c1.6,0.8,3.1,1.6,4.7,2.4c5.5,3,11,5.9,16.5,8.9c1.3,0.7,2.4,1.6,3.6,2.4"
		/>
	<path class="st2" d="M160.1,363.8c-0.3,12.6-0.5,25.3,0,37.9"/>
	<path class="st2" d="M264,459.2c0.7,5.9,1.5,11.9,2.2,17.8c0.5,4.1,0.8,8.2,1.1,12.3c0.2,2.2,0.4,4.3,0.7,6.5"/>
	<path class="st2" d="M198.9,457c0.7,8.8,0.6,17.7,3,26.3c0.8,2.7,0.5,5.6,0.8,8.4"/>
	<path class="st2" d="M350,454.3c0.6,9.4,1.2,18.9,1.8,28.3c0.1,2.2,0.2,4.3,0.2,6.5"/>
	<path class="st2" d="M154.1,375.2c1.6,2.9,1.2,5-1.8,6.4c-5.7,2.8-11.7,3.5-18.1,2.3c-3-0.6-6.2-0.4-9.3-0.5"/>
	<path class="st2" d="M309.5,92.9c7.9,0.4,15.8,0.9,23.6,1.1c3.4,0.1,6.8-0.5,10.3-0.8"/>
	<path class="st2" d="M400.7,269.5c-0.3,0.8-0.8,1.6-0.9,2.5c-0.1,1.8,0.1,3.7-0.1,5.6c-0.6,7.9-1.2,15.8-1.8,23.6c0,0.5,0,1,0,1.6"
		/>
	<path class="st2" d="M159.2,444.1c0.1,6.8,0.2,13.7,0.5,20.5c0.2,4.2,0.8,8.3,1.3,12.5"/>
	<path class="st2" d="M250.8,464.1c0.2,1.4,0.6,2.8,0.6,4.2c0,4.5-0.4,8.9-0.4,13.4c0,4.3,0.3,8.6,0.4,12.9c0,0.8-0.1,1.6-0.2,2.5"
		/>
	<path class="st2" d="M301.5,460.1c1,7.4,1.8,14.7,3,22.1c0.6,3.7,1.7,7.3,2.6,10.9"/>
	<path class="st2" d="M379.7,450.8c0.4,5.1,1.1,10.1,1.3,15.2c0.3,5.6,0.2,11.3,0.3,16.9"/>
	<path class="st2" d="M323.1,460.1c0.5,4.6,1,9.2,1.6,13.8c0.6,5.5,1.3,11,2,16.5c0.1,0.6,0,1.2,0,1.8"/>
	<path class="st2" d="M413.8,453.9c0.2,6.1,0.3,12.2,0.7,18.3c0.3,4.6-0.8,9-2,13.4"/>
	<path class="st2" d="M360.3,507.2c0.7,0.3,1.5,0.9,2.2,0.8c4.5-0.3,9.1-0.6,13.6-1.1c5.1-0.6,10.3-1.3,15.4-2"/>
	<path class="st2" d="M250.6,66.9c4.6-0.1,9.2-0.4,13.8-0.4c5.1,0,10.1,0.4,15.2,0.6"/>
	<path class="st2" d="M387.1,84.7c3.3-1.5,6.7-0.6,10-0.5c6.2,0.3,12.3,0.3,18.5,0.5"/>
	<path class="st2" d="M410.2,459.7c1,7.4-0.5,14.7-0.7,22.1c0,2-0.4,4-0.6,6"/>
	<path class="st2" d="M53.8,335.7c1.4,7.5,5.2,14,8.5,20.7c1.1,2.3,2.1,4.6,3.1,6.9"/>
	<path class="st2" d="M253.7,36.3c-5.8,2.2-11.6,4.5-17.4,6.7c-1.4,0.5-3,0.6-4.4,0.9"/>
	<path class="st2" d="M413.1,427.1c0.9,5,1.7,10,2.7,14.9c1.3,6.3,2.7,12.6,4,19"/>
	<path class="st2" d="M244.2,467.7c0.2,5,0.4,10,0.7,14.9c0.2,3.9,0.4,7.9,0.7,11.8"/>
	<path class="st2" d="M238.6,448.7c3.7,0.1,7.4,0,11.1,0.3c4.7,0.4,9.4,1.4,14.1,1.7c7.3,0.5,14.7,0.6,22.1,0.9"/>
	<path class="st2" d="M251.7,41.2c-7.9,2.7-15.8,5.7-24.1,7.2c-0.6,0.1-1,0.6-1.6,0.9"/>
	<path class="st2" d="M399.1,415.5c-5.8,8.4-13.5,14.5-23,18.3c-0.3,0.1-0.7,0.2-1.1,0.2"/>
	<path class="st2" d="M70.3,370.9c4.7,3.6,9.3,7.3,14.1,10.9c3.5,2.7,7.1,5.2,10.7,7.8"/>
	<path class="st2" d="M286.7,462.3c0.1,4.8,0.2,9.7,0.5,14.5c0.3,4.8,0.7,9.7,1.1,14.5"/>
	<path class="st2" d="M194.4,466.8c1.7,8.1,1.1,16.5,3.6,24.5"/>
	<path class="st2" d="M395.5,154.2c-0.4,8-0.7,16.1-1.1,24.1"/>
	<path class="st2" d="M405.6,412.9c-0.1,2.5-0.2,4.9-0.2,7.4c0,0.8,0.1,1.6,0.2,2.5"/>
	<path class="st2" d="M406,426.5c-0.2,3.9-0.6,7.9-0.6,11.8c0,6.7,0.3,13.4,0.4,20.1c0,3-0.3,5.9-0.4,8.9c0,0.4,0.1,0.9,0.2,1.3"/>
	<path class="st2" d="M163.9,484.6c1.4,0.9,2.7,1.9,4.3,2.6c4.2,1.9,8.4,4.1,12.7,5.5c3.4,1.1,7.1,1.4,10.7,1.8
		c0.9,0.1,1.9-0.5,1.6-1.9c-0.8-4.1-1.5-8.3-2.3-12.5"/>
	<path class="st2" d="M396,238.5c-0.2,5.1-0.4,10.3-0.7,15.4c-0.1,2.5-0.6,4.9-0.9,7.4"/>
	<path class="st2" d="M348.3,441.4c2.7-0.3,5.4-0.5,8-0.9c4.8-0.7,9.3-2.2,13.6-4.4c0.3-0.2,0.7,0,1.1,0"/>
	<path class="st2" d="M279.2,92c4.9,0.4,9.8,0.8,14.7,1.1c2.5,0.1,5.1-0.1,7.6-0.2"/>
	<path class="st2" d="M419.2,469.5c1.1,3.5-0.1,6.9-0.7,10.3c-0.4,1.9-0.9,3.9-1.3,5.8c-1,4.5-4.1,7-7.8,9.1"/>
	<path class="st2" d="M150.1,391c-0.1,2.4-0.3,4.8-0.4,7.1c-0.2,3.2-0.3,6.4-0.5,9.6c-0.1,2.3-0.1,4.6-0.5,6.9
		c-0.3,1.7-1.2,3.1-3.3,3.1"/>
	<path class="st2" d="M405.3,474.8c0.2,5.6-0.4,11-2.5,16.3c-0.7,1.9-1.5,3.7-2.2,5.6"/>
	<path class="st2" d="M360.8,463.2c0.4,4.9,0.9,9.8,1.3,14.7c0.2,2.4,0.6,4.8,0.9,7.1"/>
	<path class="st2" d="M173.9,444.3c-0.1,2.8-0.4,5.5-0.4,8.2c0,4.3,0.3,8.6,0.4,12.9"/>
	<path class="st2" d="M394.2,401.7c-0.5,1.4-1.3,2.8-1.5,4.2c-0.6,4.1-2.4,7.3-6.1,9.4c-1.3,0.8-2.5,1.6-3.8,2.4"/>
	<path class="st2" d="M396.6,108.3c0.1,3.6,0.1,7.1,0.2,10.7c0.1,3.4,0.1,6.8,0.2,10.3"/>
	<path class="st2" d="M235.9,458.3c0,4.8-0.1,9.7,0,14.5c0.1,2.6,0.4,5.2,0.6,7.8"/>
	<path class="st2" d="M87.9,389c1.7,1,3.4,2.1,5.1,3.1c3.4,2,6.8,4,10.3,6c1.6,0.9,3.1,1.9,4.7,2.9"/>
	<path class="st2" d="M187.1,451.6c1.6,4.3,1.9,8.8,2,13.4c0.1,2.4,0.6,4.8,0.9,7.1"/>
	<path class="st2" d="M280.9,64.4c5.3,0.1,10.6,0,15.8-1.1c1.5-0.3,3.1,0.1,4.7,0.2"/>
	<path class="st2" d="M287.2,45c-7.1,0.1-13.3,2.5-18.9,6.7c-0.3,0.2-0.5,0.6-0.7,0.9"/>
	<path class="st2" d="M382.6,87.4c4.2,0.3,8.5,0.6,12.7,0.9c2.4,0.1,4.9,0.2,7.4,0.2"/>
	<path class="st2" d="M373.2,456.1c1.6,5.7,1.9,11.5,1.8,17.4c0,0.9,0.1,1.8,0.2,2.7"/>
	<path class="st2" d="M362.1,83.1c1.8,1.4,4,1.1,6,1.1c3,0.1,5.9,0.2,8.9,0.2c1.7,0,3.4-0.1,5.1-0.2"/>
	<path class="st2" d="M334.9,51.5c5.9,1.6,11.9,3.3,17.8,4.9c0.6,0.2,1.2,0.3,1.8,0.4"/>
	<path class="st2" d="M402.4,150.2c0.1,6.4,0.1,12.8,0.2,19.2"/>
	<path class="st2" d="M332.4,45c0.2,0.3,0.4,0.7,0.7,0.9c3.5,1.5,7.1,3.1,10.7,4.4c1.5,0.5,3.2,0.2,4.9,0.3"/>
	<path class="st2" d="M210.3,508.9c1.1,0.2,2.2,0.6,3.3,0.6c4.2,0.3,8.5,0.5,12.7,0.6c0.7,0,1.5-0.5,2.2-0.8"/>
	<path class="st2" d="M162.1,89.2c2.5,1.1,1.2,3.4,1.5,5.1c0.5,3,0.5,6.1,0.8,9.1"/>
	<path class="st2" d="M375.5,441.4c2.9-0.1,5.8-0.2,8.7-0.5c3.2-0.4,6.4-1,9.6-1.5"/>
	<path class="st2" d="M169.2,419.1c5.1,5.4,11.8,8.3,18.1,11.8"/>
	<path class="st2" d="M276.5,510.7c-1,0.4-1.9,1-2.9,1.1c-4,0.1-8,0.1-12,0c-1,0-1.9-0.7-2.9-1.1"/>
	<path class="st2" d="M393.3,452.5c0.7,3.4,1.4,6.8,2,10.3c0.3,1.7,0.2,3.4,0.2,5.1c0,0.8-0.1,1.6-0.2,2.5"/>
	<path class="st2" d="M384.4,471.3c0,5.9,0,11.9,0,17.8"/>
	<path class="st2" d="M319.7,447.2c5.8-0.3,11.6-0.6,17.4-0.9"/>
	<path class="st2" d="M164.1,451.6c0.1,4,0.3,8,0.4,12c0.1,1.8,0.1,3.6,0.2,5.4"/>
	<path class="st2" d="M304.1,445.2c5.8-0.3,11.6-0.6,17.4-0.9"/>
	<path class="st2" d="M364.3,86.7c5.6,0.1,11.3,0.1,16.9,0.2"/>
	<path class="st2" d="M176.6,90.5c2.8,0,5.5,0,8.2,0c2.9,0,5.8-0.1,8.7-0.2"/>
	<path class="st2" d="M342.9,478.4c-0.7,5.5-1.3,11-2,16.5"/>
	<path class="st2" d="M300.6,478.8c0.7,4.6,1.4,9.2,2,13.8c0.1,0.9,0,1.8,0,2.7"/>
	<path class="st2" d="M168.1,467.2c0.5,5.5,1,11,1.6,16.5"/>
	<path class="st2" d="M56.4,355.8c2.5,4.7,5,9.4,7.6,14c0.3,0.6,1.3,0.9,2,1.4"/>
	<path class="st2" d="M146.7,397.7c-0.4,5.4-0.9,10.7-1.3,16.1"/>
	<path class="st2" d="M397.1,215.8c-0.2,4.9-0.4,9.8-0.7,14.7c0,0.5-0.3,0.9-0.4,1.3"/>
	<path class="st2" d="M155.4,87.8c0.1,5.2,0.1,10.4,0.2,15.6"/>
	<path class="st2" d="M347.2,469.9c-0.1,3-0.2,6-0.5,8.9c-0.3,3.6-0.7,7.1-1.1,10.7c0,0.4-0.3,0.7-0.4,1.1"/>
	<path class="st2" d="M195.3,443.2c5.2,0.8,10.4,1.6,15.6,2.5"/>
	<path class="st2" d="M312.2,63.7c5.3-0.1,10.7,0,15.6,2.5"/>
	<path class="st2" d="M302.3,511.6c-1.1,0.3-2.2,0.8-3.3,0.9c-3,0.1-6.1,0.1-9.1,0c-1,0-2.1-0.6-3.1-0.9"/>
	<path class="st2" d="M137.6,413.3c3.5,4.5,6,9.5,8,14.7"/>
	<path class="st2" d="M256,482c-0.2,2.4-0.6,4.8-0.6,7.1c0,3.1,0.4,6.2,0.6,9.4"/>
	<path class="st2" d="M254.9,461c0.1,4.9,0.3,9.8,0.4,14.7"/>
	<path class="st2" d="M405.8,387.9c0.1,4.9,0.1,9.8,0.2,14.7"/>
	<path class="st2" d="M284.1,67.7c2.2-0.1,4.3-0.3,6.5-0.2c2.8,0.1,5.5,0.4,8.2,0.6"/>
	<path class="st2" d="M351.2,51c3,2.2,6.7,2.2,10,3.1c1.5,0.4,3,1.2,4.5,1.8"/>
	<path class="st2" d="M203.1,443.4c0.7-1.6,2.1-1,3.1-0.8c3.7,0.4,7.3,1.1,10.9,1.7"/>
	<path class="st2" d="M278.7,460.6c0.4,4.8,0.7,9.5,1.1,14.3"/>
	<path class="st2" d="M206.5,49.7c1.8,0.1,3.6,0.3,5.4,0.4"/>
	<path class="st2" d="M239.3,49.5c-0.3,0.3-0.6,0.8-0.9,0.9c-3.5,0.3-7,0.5-10.5,0.7c-0.7,0-1.5-0.5-2.2-0.8"/>
	<path class="st2" d="M355.2,459.7c0.4,4.2,0.7,8.3,1.1,12.5c0.1,1.2,0.2,2.4,0.2,3.6"/>
	<path class="st2" d="M357.4,482.4c0.4,4.2,0.7,8.3,1.1,12.5c0,0.4,0.1,0.7,0.2,1.1"/>
	<path class="st2" d="M193.1,447.4c0.3,4.4,0.6,8.8,0.9,13.2"/>
	<path class="st2" d="M344.3,445.2c4.3,0.1,8.6,0.1,12.9,0.2"/>
	<path class="st2" d="M153.9,388.3c0,4.3,0,8.6,0,12.9"/>
	<path class="st2" d="M165.2,105.4c-1.7,2.5-0.6,5.3-0.9,8c-0.1,1.5,0,3.1,0,4.7"/>
	<path class="st2" d="M285.8,449.4c4.2,0,8.3,0,12.5,0"/>
	<path class="st2" d="M215.8,439.6c4.2,0.7,8.3,1.3,12.5,2"/>
	<path class="st2" d="M159.7,416.9c0.1,3.7,0.3,7.4,0.4,11.1c0,0.4-0.1,0.9-0.2,1.3"/>
	<path class="st2" d="M350.7,431c2-0.5,4-1,6-1.4"/>
	<path class="st2" d="M202.7,457c0.1,1.1,0.4,2.2,0.4,3.3c0.1,2.9,0.2,5.8,0.2,8.7"/>
	<path class="st2" d="M229.7,442.3c4,0.7,8,1.3,12,2"/>
	<path class="st2" d="M204.5,477.1c0.5,4,1,8,1.6,12"/>
	<path class="st2" d="M421.8,467.7c0.9,4,2.4,7.8,1.6,12"/>
	<path class="st2" d="M397.3,321.4c-0.3,4.5-0.6,8.9-0.9,13.4c0,0.6-0.1,1.2-0.2,1.8"/>
	<path class="st2" d="M158.3,95.8c0.1,2,0.1,4,0.2,6c0.1,1.9,0.1,3.7,0.2,5.6"/>
	<path class="st2" d="M270.5,479.3c0.4,3.9,0.7,7.7,1.1,11.6"/>
	<path class="st2" d="M136.5,419.5c1.6,3.9,3.3,7.7,4.9,11.6"/>
	<path class="st2" d="M186.2,482c0.2,3.8,0.4,7.6,0.7,11.4"/>
	<path class="st2" d="M390.6,346.4c-0.1,2.4-0.1,4.8-0.2,7.1"/>
	<path class="st2" d="M144.9,482c-1.8,4.6-0.9,7.3,3.1,10c0.6,0.4,1.1,1,1.6,1.5"/>
	<path class="st2" d="M146.1,448.1c-0.4,3.7-0.9,7.4-1.3,11.1"/>
	<path class="st2" d="M418.3,95.8c-0.4,3.3-0.8,6.7-1.1,10c0,0.4,0.1,0.7,0.2,1.1"/>
	<path class="st2" d="M50,306.7c-0.5,3.6-1,7.1-1.6,10.7"/>
	<path class="st2" d="M421.8,493.3c-2.2,1.6-4.2,3.2-6.5,4.6c-1.3,0.8-2.8,1.1-4.2,1.6"/>
	<path class="st2" d="M273.8,460.1c0.2,3.6,0.4,7.1,0.7,10.7"/>
	<path class="st2" d="M167.5,435.1c0.5,0.4,1,1.1,1.6,1.3c2.6,0.8,5.2,1.5,7.8,2.3"/>
	<path class="st2" d="M91,353.1c1.5,2.3,3,4.6,4.5,6.9"/>
	<path class="st2" d="M183.5,450.8c0.2,3.1,0.4,6.2,0.7,9.4"/>
	<path class="st2" d="M332.2,54.1c3.1,1,6.2,1.9,9.4,2.9"/>
	<path class="st2" d="M174.4,93.8c3.1-0.2,6.2-0.4,9.4-0.7"/>
	<path class="st2" d="M282.9,458.8c0.2,3.1,0.4,6.2,0.7,9.4"/>
	<path class="st2" d="M375,483.7c0.4,3,0.7,6.1,1.1,9.1"/>
	<path class="st2" d="M240.4,462.3c0.4,5.2,0.7,10.4,1.1,15.6"/>
	<path class="st2" d="M320.2,482.4c0.1,2.2,0.4,4.5,0.4,6.7c0,0.5-0.5,1-0.8,1.6"/>
	<path class="st2" d="M318.4,447.6c-4.2,0.3-8.3,0.6-12.5,0.9"/>
	<path class="st2" d="M336.9,463.2c0,3.6,0,7.1,0,10.7"/>
	<path class="st2" d="M397,364.9c-0.4,2.7-0.8,5.5-1.2,8.2"/>
	<path class="st2" d="M229.7,484.6c0.1,2.8,0.3,5.7,0.4,8.5"/>
	<path class="st2" d="M365.7,56.6c0.8-2,2.3-0.7,3.3-0.6c1.5,0.2,2.8,1.1,4.2,1.7"/>
	<path class="st2" d="M248.4,460.1c0,2.7,0,5.4,0,8"/>
	<path class="st2" d="M401.5,240.3c0,1.5-0.1,3,0,4.5c0.1,0.9,0.6,1.8,0.9,2.7"/>
	<path class="st2" d="M317.5,465.5c0.3,2.4,0.6,4.8,0.9,7.1"/>
	<path class="st2" d="M394.2,481.5c0,2.3,0,4.6,0,6.9"/>
	<path class="st2" d="M167.2,450.3c0.1,3,0.3,5.9,0.4,8.9"/>
	<path class="st2" d="M258.2,56.4c1.5-0.1,3-0.3,4.5-0.4"/>
	<path class="st2" d="M265.8,56.2c1.6,0,3.3,0,4.9,0"/>
	<path class="st2" d="M113.1,370.7c2.1,1.6,4.2,3.1,6.2,4.7"/>
	<path class="st2" d="M241.5,483.7c0.1,1.9,0.1,3.9,0.2,5.8"/>
	<path class="st2" d="M353.6,67.7c2.9,0,3.3,0.4,4,3.6"/>
	<path class="st2" d="M264.4,83.1c-1.8,0.2-3.6,0.4-5.4,0.7"/>
	<path class="st2" d="M174.6,443.8c1.6,0.4,3.1,0.9,4.7,1.3"/>
	<path class="st2" d="M178.8,97c1.2,0.4,2.4,0.7,3.6,1.1"/>
	<path class="st2" d="M354.7,430.9c0.8,1.6,2.2,0.6,3.3,0.7"/>
	<path class="st2" d="M174.8,96.1c1.1,0.1,2.2,0.3,3.3,0.4"/>
	<path class="st2" d="M347.8,428.7c1-0.1,2.1-0.1,3.1-0.2"/>
	<path class="st2" d="M348.9,431.1c0.1,0.6,0.3,1.2,0.5,1.9c-0.8,0.2-1.6,0.5-2.5,0.7"/>
	<path class="st2" d="M333.4,513.6c0,0.5-0.1,1-0.1,1.6"/>
	<path class="st2" d="M140.3,439.4c0.4,0,0.7-0.1,1.1-0.1"/>
	<path class="st2" d="M396,145.1c0.3,0,0.6-0.1,0.9-0.1"/>
	<path class="st2" d="M364.5,430.5c0.1,0.3,0.3,0.6,0.4,0.9"/>
</g>
</svg>
